{
  "kind": "singleType",
  "collectionName": "homepages",
  "info": {
    "singularName": "homepage",
    "pluralName": "homepages",
    "displayName": "Homepage",
    "description": ""
  },
  "options": {
    "draftAndPublish": false
  },
  "pluginOptions": {
    "i18n": {
      "localized": true
    }
  },
  "attributes": {
    "title": {
      "pluginOptions": {
        "i18n": {
          "localized": true
        }
      },
      "type": "string",
      "required": true
    },
    "subtitle": {
      "pluginOptions": {
        "i18n": {
          "localized": true
        }
      },
      "type": "string"
    },
    "body": {
      "pluginOptions": {
        "i18n": {
          "localized": true
        }
      },
      "type": "richtext",
      "required": true
    },
    "embed": {
      "pluginOptions": {
        "i18n": {
          "localized": false
        }
      },
      "type": "text"
    },
    "poster": {
      "type": "media",
      "multiple": false,
      "required": false,
      "allowedTypes": [
        "images"
      ],
      "pluginOptions": {
        "i18n": {
          "localized": true
        }
      }
    },
    "sponsors": {
      "displayName": "Logos",
      "type": "component",
      "repeatable": true,
      "pluginOptions": {
        "i18n": {
          "localized": false
        }
      },
      "component": "relations.logos"
    },
    "dates": {
      "displayName": "Dates",
      "type": "component",
      "repeatable": true,
      "pluginOptions": {
        "i18n": {
          "localized": false
        }
      },
      "component": "relations.dates"
    },
    "highlights": {
      "displayName": "Highlights",
      "type": "component",
      "repeatable": true,
      "pluginOptions": {
        "i18n": {
          "localized": false
        }
      },
      "component": "relations.highlights"
    }
  }
}
