{
  "collectionName": "components_relations_contacts",
  "info": {
    "displayName": "Contact",
    "icon": "address-book",
    "description": ""
  },
  "options": {},
  "attributes": {
    "email": {
      "type": "email"
    },
    "twitter": {
      "type": "string",
      "regex": "^@.*$",
      "default": "@"
    },
    "activitypub": {
      "type": "string"
    },
    "matrix": {
      "type": "string"
    }
  }
}
