{
  "kind": "collectionType",
  "collectionName": "attendees",
  "info": {
    "singularName": "attendee",
    "pluralName": "attendees",
    "displayName": "Attendee",
    "description": ""
  },
  "options": {
    "draftAndPublish": false
  },
  "pluginOptions": {},
  "attributes": {
    "contact": {
      "type": "string",
      "private": true
    },
    "present": {
      "type": "boolean"
    },
    "event": {
      "type": "relation",
      "relation": "manyToOne",
      "target": "api::event.event",
      "inversedBy": "attendees"
    }
  }
}
